[
  { "id": 1, "webtoonName": "전지적 독자 시점", "imgUrl": "001.png" },
  { "id": 2, "webtoonName": "윈드브레이커", "imgUrl": "002.png" },
  { "id": 3, "webtoonName": "신의탑", "imgUrl": "003.png" },
  { "id": 4, "webtoonName": "시간이 머문 집", "imgUrl": "004.png" },
  { "id": 5, "webtoonName": "용사가 돌아왔다", "imgUrl": "005.png" },
  { "id": 6, "webtoonName": "운명을 보는 회사원", "imgUrl": "006.png" },
  { "id": 7, "webtoonName": "낙향문사전", "imgUrl": "007.png" },
  { "id": 8, "webtoonName": "집이 없어", "imgUrl": "008.png" },
  { "id": 9, "webtoonName": "별을 품은 소드마스터", "imgUrl": "009.png" }

]